<svg xmlns="http://www.w3.org/2000/svg" viewBox="0 0 2400 2800">
  <path fill="#fff" d="M2200 1300l-400 400h-400l-350 350v-350H600V200h1600z"/>
  <path d="M500 0L0 500v1800h600v500l500-500h400l900-900V0H500zm1700 1300l-400 400h-400l-350 350v-350H600V200h1600v1100z"/>
  <path d="M1700 550h200v600h-200zM1150 550h200v600h-200z"/>
</svg>
