<svg xmlns="http://www.w3.org/2000/svg" viewBox="0 0 122 85">
  <g fill="none" fill-rule="evenodd">
    <path fill="#D9252A" d="M118.95 13.27A15.21 15.21 0 00108.2 2.54C98.73 0 60.74 0 60.74 0S22.75 0 13.28 2.54A15.21 15.21 0 002.54 13.27C0 22.74 0 42.5 0 42.5s0 19.76 2.54 29.23a15.2 15.2 0 0010.74 10.73C22.75 85 60.74 85 60.74 85s38 0 47.47-2.54a15.2 15.2 0 0010.74-10.73c2.53-9.47 2.53-29.23 2.53-29.23s0-19.76-2.53-29.23"/>
    <path fill="#FFFFFE" d="M48 60l32-18-32-18v36"/>
  </g>
</svg>
